<?xml version="1.0" encoding="UTF-8" standalone="no"?>
<svg
   xmlns:dc="http://purl.org/dc/elements/1.1/"
   xmlns:cc="http://creativecommons.org/ns#"
   xmlns:rdf="http://www.w3.org/1999/02/22-rdf-syntax-ns#"
   xmlns:svg="http://www.w3.org/2000/svg"
   xmlns="http://www.w3.org/2000/svg"
   xmlns:sodipodi="http://sodipodi.sourceforge.net/DTD/sodipodi-0.dtd"
   xmlns:inkscape="http://www.inkscape.org/namespaces/inkscape"
   id="a6ee8617-cc99-4eb9-a93b-e1a7e83c9724"
   data-name="Layer 1"
   width="769.11615"
   height="587.00458"
   viewBox="0 0 769.11615 587.00456"
   version="1.1"
   sodipodi:docname="echanges.svg"
   inkscape:version="0.92.4 (5da689c313, 2019-01-14)">
  <metadata
     id="metadata111">
    <rdf:RDF>
      <cc:Work
         rdf:about="">
        <dc:format>image/svg+xml</dc:format>
        <dc:type
           rdf:resource="http://purl.org/dc/dcmitype/StillImage" />
        <dc:title>code typing</dc:title>
      </cc:Work>
    </rdf:RDF>
  </metadata>
  <defs
     id="defs109" />
  <sodipodi:namedview
     pagecolor="#ffffff"
     bordercolor="#666666"
     borderopacity="1"
     objecttolerance="10"
     gridtolerance="10"
     guidetolerance="10"
     inkscape:pageopacity="0"
     inkscape:pageshadow="2"
     inkscape:window-width="1858"
     inkscape:window-height="1016"
     id="namedview107"
     showgrid="false"
     inkscape:zoom="0.28561275"
     inkscape:cx="384.97292"
     inkscape:cy="353.1514"
     inkscape:window-x="62"
     inkscape:window-y="27"
     inkscape:window-maximized="1"
     inkscape:current-layer="a6ee8617-cc99-4eb9-a93b-e1a7e83c9724" />
  <title
     id="title2">code typing</title>
  <polygon
     points="719.6,507.394 818,409.294 719.6,311.194 749.6,281.294 878,409.294 749.6,537.294 "
     id="polygon6"
     transform="translate(-239.02708,-179.29364)"
     style="opacity:0.1" />
  <path
     d="m 279.57292,236.99998 h 40 v -40 h -40 z m 200.8,-40 h -40 v 40 h 40 z m -120.4,40 h 40 v -40 h -40 z"
     id="path8"
     inkscape:connector-curvature="0"
     style="opacity:0.1" />
  <polygon
     points="354.3,280.294 226,408.294 354.4,536.294 384.4,506.394 285.9,408.294 384.3,310.194 "
     id="polygon10"
     transform="translate(-109.02708,-179.29364)"
     style="opacity:0.1" />
  <path
     d="m 626.50583,203.55892 c 0,0 -30.78848,-23.37612 -33.12545,-14.80723 -2.33697,8.56889 22.59069,28.04361 22.59069,28.04361 z"
     id="path30"
     inkscape:connector-curvature="0"
     style="fill:#ffb9b9" />
  <path
     d="m 626.50583,203.55892 c 0,0 -30.78848,-23.37612 -33.12545,-14.80723 -2.33697,8.56889 22.59069,28.04361 22.59069,28.04361 z"
     id="path32"
     inkscape:connector-curvature="0"
     style="opacity:0.1" />
  <path
     d="m 728.14554,129.5485 c 0,0 -36.6125,65.4351 -37.39149,74.783 -0.77899,9.3479 -0.779,10.12686 -3.89495,9.34787 -3.11595,-0.77899 -45.96037,-5.45292 -49.85532,-3.89494 -3.89495,1.55798 -11.68484,-9.34787 -11.68484,-9.34787 0,0 -14.80079,14.80079 -11.68484,17.91675 3.11595,3.11596 12.46382,4.67391 14.02182,8.56886 1.558,3.89495 3.89495,7.7899 10.90585,7.01091 7.0109,-0.77899 54.52925,12.46382 60.76115,10.12685 6.2319,-2.33697 7.78989,-6.23192 10.90585,-6.23192 3.11596,0 9.34787,-3.11595 9.34787,-3.89494 0,-0.77899 21.8117,-42.06543 21.8117,-42.06543 0,0 25.70668,-56.08723 -13.2428,-62.31914 z"
     id="path34"
     inkscape:connector-curvature="0"
     style="fill:#d0cde1" />
  <path
     d="m 728.14554,129.5485 c 0,0 -36.6125,65.4351 -37.39149,74.783 -0.77899,9.3479 -0.779,10.12686 -3.89495,9.34787 -3.11595,-0.77899 -45.96037,-5.45292 -49.85532,-3.89494 -3.89495,1.55798 -11.68484,-9.34787 -11.68484,-9.34787 0,0 -14.80079,14.80079 -11.68484,17.91675 3.11595,3.11596 12.46382,4.67391 14.02182,8.56886 1.558,3.89495 3.89495,7.7899 10.90585,7.01091 7.0109,-0.77899 54.52925,12.46382 60.76115,10.12685 6.2319,-2.33697 7.78989,-6.23192 10.90585,-6.23192 3.11596,0 9.34787,-3.11595 9.34787,-3.89494 0,-0.77899 21.8117,-42.06543 21.8117,-42.06543 0,0 25.70668,-56.08723 -13.2428,-62.31914 z"
     id="path36"
     inkscape:connector-curvature="0"
     style="opacity:0.1" />
  <path
     d="m 675.02664,86.410326 a 64.78949,64.78949 0 0 0 0.19963,12.41994 c 1.18318,8.949794 5.30311,18.279004 1.41138,26.633164 -1.41259,3.03233 -3.80585,5.67452 -5.10925,8.7433 -2.7592,6.49636 -0.25777,13.70176 -0.63281,20.61595 -0.48448,8.93161 -6.16516,17.538 -14.80657,22.43244 14.76344,0.45865 28.80366,-6.84077 38.09315,-16.7876 9.28949,-9.94683 14.46277,-22.28423 18.34107,-34.628 a 75.2815,75.2815 0 0 0 3.805,-17.92219 25.83489,25.83489 0 0 0 -1.2085,-10.385854 39.57451,39.57451 0 0 0 -5.3421,-9.12325 c -2.32605,-3.27044 -4.716,-6.60515 -8.14786,-9.03848 -4.227,-2.99707 -12.37788,-6.00629 -17.98536,-5.57014 -6.87816,0.53498 -8.32835,7.83692 -8.61778,12.61072 z"
     id="path38"
     inkscape:connector-curvature="0"
     style="fill:#2f2e41" />
  <path
     d="m 697.76492,110.85275 c 0,0 8.56888,30.38059 1.558,38.94947 -7.01088,8.56888 42.06542,-3.89495 42.06542,-3.89495 0,0 -24.14867,-24.14867 -12.46383,-39.72845 z"
     id="path40"
     inkscape:connector-curvature="0"
     style="fill:#ffb9b9" />
  <path
     d="m 697.76492,110.85275 c 0,0 8.56888,30.38059 1.558,38.94947 -7.01088,8.56888 42.06542,-3.89495 42.06542,-3.89495 0,0 -24.14867,-24.14867 -12.46383,-39.72845 z"
     id="path42"
     inkscape:connector-curvature="0"
     style="opacity:0.1" />
  <polygon
     points="719.6,488.394 818,390.294 719.6,292.194 749.6,262.294 878,390.294 749.6,518.294 "
     id="polygon44"
     transform="translate(-239.02708,-179.29364)"
     style="fill:#fbb12c" />
  <polygon
     points="920.433,731.833 930.56,727.159 927.444,694.442 908.748,695.221 908.748,717.812 "
     id="polygon46"
     transform="translate(-239.02708,-179.29364)"
     style="fill:#ffb9b9" />
  <path
     d="m 674.39527,536.95992 c 0,0 -3.116,-10.90585 -8.56888,-3.116 -5.45288,7.78985 -10.90585,24.92766 -14.02181,25.70665 -3.11596,0.77899 -24.92766,24.92766 -3.116,24.92766 21.81166,0 28.82261,-10.12686 28.82261,-10.12686 0,0 21.8117,-8.56889 21.8117,-10.12687 0,-1.55798 -3.116,-30.38058 -4.67394,-30.38058 -1.55794,0 -2.337,5.45293 -6.23191,5.45293 -3.89491,0 -14.02177,-2.33693 -14.02177,-2.33693 z"
     id="path48"
     inkscape:connector-curvature="0"
     style="fill:#2f2e41" />
  <polygon
     points="978.857,727.938 978.857,697.558 960.941,699.116 960.162,720.149 "
     id="polygon50"
     transform="translate(-239.02708,-179.29364)"
     style="fill:#ffb9b9" />
  <path
     d="m 742.16734,540.85486 c 0,0 -10.12686,-10.90585 -15.57978,-8.56888 a 53.81171,53.81171 0 0 0 -7.7899,3.89495 c 0,0 -3.11595,10.12686 -4.67393,18.69574 -1.55798,8.56888 -2.337,12.46383 -3.89495,15.57979 -1.55795,3.11596 -3.116,14.8008 12.46383,16.35878 15.57983,1.55798 20.25372,-7.01091 20.25372,-7.01091 l 3.89495,-20.25372 c 0,0 -1.55798,-18.69575 -4.67394,-18.69575 z"
     id="path52"
     inkscape:connector-curvature="0"
     style="fill:#2f2e41" />
  <path
     d="m 679.8482,295.47322 c 0,0 -22.59069,50.63431 -19.47474,96.59468 0,0 -7.78989,17.91676 -3.11595,45.96037 4.67394,28.04361 10.90585,84.1309 10.90585,84.1309 0,0 21.03271,2.337 22.59069,-1.558 0,0 1.558,-38.94946 3.11595,-40.50744 1.55795,-1.55798 -0.779,-37.39149 -3.11595,-44.4024 -2.33695,-7.01091 21.8117,-76.341 21.8117,-76.341 l -6.23192,-86.46782 z"
     id="path54"
     inkscape:connector-curvature="0"
     style="fill:#2f2e41" />
  <path
     d="m 679.8482,295.47322 c 0,0 -22.59069,50.63431 -19.47474,96.59468 0,0 -7.78989,17.91676 -3.11595,45.96037 4.67394,28.04361 10.90585,84.1309 10.90585,84.1309 0,0 21.03271,2.337 22.59069,-1.558 0,0 1.558,-38.94946 3.11595,-40.50744 1.55795,-1.55798 -0.779,-37.39149 -3.11595,-44.4024 -2.33695,-7.01091 21.8117,-76.341 21.8117,-76.341 l -6.23192,-86.46782 z"
     id="path56"
     inkscape:connector-curvature="0"
     style="opacity:0.1" />
  <path
     d="m 673.61628,292.35727 14.8008,31.93856 c 0,0 7.0109,72.446 10.90585,81.79388 0,0 1.558,26.48564 8.56888,35.05452 7.01088,8.56888 12.46383,84.13085 12.46383,84.13085 0,0 19.47474,5.45292 21.03271,0 1.55797,-5.45292 6.23192,-42.84442 6.23192,-42.84442 0,0 1.558,-31.93856 -7.01091,-52.97127 -8.56891,-21.03271 10.12687,-96.59468 10.12687,-96.59468 0,0 19.47469,-36.6125 -8.56889,-66.21409 z"
     id="path58"
     inkscape:connector-curvature="0"
     style="fill:#2f2e41" />
  <circle
     cx="714.90271"
     cy="88.262054"
     r="31.93856"
     id="circle60"
     style="fill:#ffb9b9" />
  <path
     d="m 744.50431,136.5594 c 0,0 -33.49654,0 -38.17048,3.89495 a 6.2148,6.2148 0 0 1 -8.56888,0 c 0,0 -11.68484,0.779 -14.8008,10.12686 -3.11596,9.34786 -12.46383,21.8117 -12.46383,21.8117 0,0 -14.0218,10.12686 -6.23191,36.6125 7.78989,26.48564 1.558,69.33 1.558,69.33 0,0 -6.23192,9.34787 0,13.24282 6.23192,3.89495 8.56888,5.45292 7.78989,8.56888 -0.77899,3.11596 70.888,-25.70665 70.888,-31.15957 0,-5.45292 -1.558,-10.12686 0,-12.46383 1.558,-2.33697 3.116,-6.23192 1.558,-10.12686 -1.558,-3.89494 1.558,-4.67394 0.779,-8.56889 -0.779,-3.89495 3.895,-32.71755 7.0109,-45.18138 3.1159,-12.46383 2.33695,-55.30819 -9.34789,-56.08718 z"
     id="path62"
     inkscape:connector-curvature="0"
     style="fill:#d0cde1" />
  <path
     d="m 626.50583,212.90679 c 0,0 -30.78848,-23.37611 -33.12545,-14.80723 -2.33697,8.56888 22.59069,28.04361 22.59069,28.04361 z"
     id="path64"
     inkscape:connector-curvature="0"
     style="fill:#ffb9b9" />
  <path
     d="m 728.14554,140.45435 c 0,0 -36.6125,65.4351 -37.39149,74.783 -0.77899,9.3479 -0.779,10.12686 -3.89495,9.34788 -3.11595,-0.77898 -45.96037,-5.45293 -49.85532,-3.89495 -3.89495,1.55798 -11.68484,-9.34787 -11.68484,-9.34787 0,0 -14.80079,14.80076 -11.68484,17.91676 3.11595,3.116 12.46383,4.67394 14.02181,8.56888 1.55798,3.89494 3.89495,7.7899 10.90585,7.01091 7.0109,-0.77899 54.52926,12.46379 60.76116,10.12682 6.2319,-2.33697 7.78989,-6.23192 10.90585,-6.23192 3.11596,0 9.34787,-3.11595 9.34787,-3.89494 0,-0.77899 21.8117,-42.06543 21.8117,-42.06543 0,0 25.70668,-56.08723 -13.2428,-62.31914 z"
     id="path66"
     inkscape:connector-curvature="0"
     style="fill:#d0cde1" />
  <path
     d="m 699.08725,108.66729 c -0.44276,-3.16315 -2.06273,-6.03281 -2.89375,-9.116804 a 18.92542,18.92542 0 0 1 2.15464,-14.69554 c 4.58114,-7.39921 13.57543,-10.67633 19.8481,-16.70863 0.13,3.07271 2.26209,5.69857 4.61867,7.67467 2.35658,1.9761 5.0595,3.57914 7.05494,5.91937 a 23.18422,23.18422 0 0 1 4.109,8.32352 29.24582,29.24582 0 0 1 1.62312,10.917004 13.68907,13.68907 0 0 1 -4.73071,9.702 c -2.33628,1.84647 -5.601,2.901 -6.72979,5.65669 a 9.64383,9.64383 0 0 0 -0.37513,4.26987 c 0.53486,8.57042 1.03463,17.29348 -0.98353,25.64005 -2.01816,8.34657 -6.96258,16.41045 -14.71162,20.11053 6.368,0.45177 12.87041,0.89222 19.04877,-0.71525 6.17836,-1.60747 12.08706,-5.65526 14.21717,-11.67346 1.05082,-2.96888 1.15021,-6.27088 2.64328,-9.04382 3.779,-7.01837 14.214,-7.33837 19.34001,-13.44269 2.0513,-2.44284 3.0437,-5.59074 3.7792,-8.69468 4.3283,-18.26461 1.2873,-37.658764 -5.30169,-55.234744 -2.27105,-6.058 -5.09851,-12.15764 -9.9697,-16.41543 -4.14514,-3.62317 -9.43855,-5.61944 -14.67334,-7.32431 -7.63963,-2.48808 -15.50959,-4.52657 -23.53987,-4.78936 a 29.89721,29.89721 0 0 0 -10.33347,1.20642 30.722,30.722 0 0 0 -9.09193,5.17932 c -12.57933,9.788 -21.1439,25.43159 -20.00738,41.32979 0.68769,9.61973 4.76363,18.723574 9.99979,26.822674 1.83133,2.83263 6.15833,8.87262 10.18007,7.09154 3.64749,-1.61536 5.20335,-8.57237 4.72515,-11.98873 z"
     id="path68"
     inkscape:connector-curvature="0"
     style="fill:#2f2e41" />
  <path
     d="m 279.57292,217.99998 h 40 v -40 h -40 z m 200.8,-40 h -40 v 40 h 40 z m -120.4,40 h 40 v -40 h -40 z"
     id="path70"
     inkscape:connector-curvature="0"
     style="fill:#fbb12c" />
  <ellipse
     cx="97.178795"
     cy="32.545055"
     rx="33.656898"
     ry="26.25238"
     id="ellipse72"
     style="fill:#2f2e41" />
  <path
     d="m 102.90047,213.28262 c 0,0 30.29121,2.01941 35.67631,-2.01942 5.3851,-4.03883 28.2718,5.38511 30.29121,10.77021 2.01941,5.3851 -32.31062,6.05824 -37.69573,6.05824 -5.38511,0 -30.96435,8.07766 -30.96435,8.07766 z"
     id="path74"
     inkscape:connector-curvature="0"
     style="fill:#a0616a" />
  <path
     d="m 40.525163,526.84468 c 0,0 -14.117,35.59927 -6.75158,39.89573 7.36542,4.29646 84.701707,1.22756 84.701707,1.22756 0,0 12.88939,-7.97914 -1.84134,-13.50317 0,0 -12.27561,-0.61378 -20.254757,-5.524 -7.97915,-4.91022 -17.18585,-14.117 -17.18585,-14.117 0,0 -0.61378,-13.50317 -5.524,-10.43426 a 12.61392,12.61392 0 0 0 -5.524,8.59292 z"
     id="path76"
     inkscape:connector-curvature="0"
     style="fill:#2f2e41" />
  <path
     d="m 40.525163,526.84468 c 0,0 -14.117,35.59927 -6.75158,39.89573 7.36542,4.29646 84.701707,1.22756 84.701707,1.22756 0,0 12.88939,-7.97914 -1.84134,-13.50317 0,0 -12.27561,-0.61378 -20.254757,-5.524 -7.97915,-4.91022 -17.18585,-14.117 -17.18585,-14.117 0,0 -0.61378,-13.50317 -5.524,-10.43426 a 12.61392,12.61392 0 0 0 -5.524,8.59292 z"
     id="path78"
     inkscape:connector-curvature="0"
     style="opacity:0.1" />
  <polygon
     points="354.3,261.294 226,389.294 354.4,517.294 384.4,487.394 285.9,389.294 384.3,291.194 "
     id="polygon80"
     transform="translate(-109.02708,-179.29364)"
     style="fill:#fbb12c" />
  <path
     d="m 18.758223,537.73517 c 0,0 -15.4821805,39.042 -7.40452,43.754 8.07766,4.712 92.892997,1.34628 92.892997,1.34628 0,0 14.1359,-8.7508 -2.01941,-14.809 0,0 -13.462757,-0.67314 -22.213557,-6.05824 -8.7508,-5.3851 -18.84781,-15.48228 -18.84781,-15.48228 0,0 -0.67314,-14.809 -6.05824,-11.44335 a 13.83376,13.83376 0 0 0 -6.05824,9.42393 z"
     id="path82"
     inkscape:connector-curvature="0"
     style="fill:#2f2e41" />
  <path
     d="m 98.188503,290.02035 -9.42393,84.81539 c 0,0 -3.36569,40.38828 -13.46276,49.13907 0,0 0,12.78962 -3.36569,16.82845 l -4.712,53.1779 c 0,0 6.73138,19.521 6.05824,22.88669 -0.67314,3.36569 2.69256,14.1359 2.01942,15.48218 -0.67314,1.34628 -32.31063,0 -32.31063,0 l 6.73138,-108.37522 20.86728,-150.78291 z"
     id="path84"
     inkscape:connector-curvature="0"
     style="fill:#2f2e41" />
  <path
     d="m 98.188503,290.02035 -9.42393,84.81539 c 0,0 -3.36569,40.38828 -13.46276,49.13907 0,0 0,12.78962 -3.36569,16.82845 l -4.712,53.1779 c 0,0 6.73138,19.521 6.05824,22.88669 -0.67314,3.36569 2.69256,14.1359 2.01942,15.48218 -0.67314,1.34628 -32.31063,0 -32.31063,0 l 6.73138,-108.37522 20.86728,-150.78291 z"
     id="path86"
     inkscape:connector-curvature="0"
     style="opacity:0.1" />
  <path
     d="m 81.360053,287.3278 c 0,0 -7.40452,69.33321 -10.77021,84.14225 a 191.45128,191.45128 0 0 0 -4.03883,29.61807 c 0,0 -0.67313,21.54041 -6.73138,27.59866 a 18.194,18.194 0 0 0 -5.3851,13.46276 c 0,0 -6.05824,67.98693 -2.69255,76.06459 3.36569,8.07766 6.73138,14.809 3.36569,20.19414 -3.36569,5.38514 -40.38828,5.3851 -40.38828,1.34628 0,-4.03882 0,-7.40452 -2.01942,-9.42394 -2.01942,-2.01942 0,-14.809 0,-14.809 0,0 -8.0776505,-59.90928 -0.67313,-77.41087 7.40452,-17.50159 10.7702,-65.29439 10.7702,-65.29439 0,0 -5.3851,-54.52418 -12.11648,-63.275 -6.7313805,-8.75082 1.34628,-39.71514 1.34628,-39.71514 z"
     id="path88"
     inkscape:connector-curvature="0"
     style="fill:#2f2e41" />
  <path
     d="m 62.408563,72.018366 c 0.78254,1.78268 2.65563,2.77523 4.36085,3.71467 9.88293,5.4447 18.15564,13.33867 26.30611,21.14167 a 30.88184,30.88184 0 0 1 1.22533,-20.88436 c 0.97311,-2.25349 2.24854,-4.67575 1.553,-7.02976 -0.51152,-1.73109 -1.98559,-2.97969 -3.41344,-4.084 a 105.83513,105.83513 0 0 0 -10.40969,-7.10206 c -2.52042,-1.50791 -7.7023,-5.52207 -10.59458,-5.08531 -0.15184,3.90788 -0.23113,7.40176 -1.94245,11.05414 -0.40598,0.86634 -6.78598,8.9565 -7.08513,8.27501 z"
     id="path90"
     inkscape:connector-curvature="0"
     style="fill:#a0616a" />
  <circle
     cx="96.842216"
     cy="53.075771"
     r="27.59866"
     id="circle92"
     style="fill:#a0616a" />
  <path
     d="m 98.188503,118.37017 c 0,0 4.711997,-23.559834 -8.75079,-31.637494 -13.46279,-8.07766 -28.94494,-17.50159 -28.94494,-17.50159 0,0 -4.712,-0.67313 -6.73138,9.42394 0,0 -38.36886,7.40451 -42.40769,43.754004 -4.0388305,36.34949 2.69255,89.52735 2.69255,89.52735 0,0 -6.0582405,46.44652 -13.46276047,71.35263 0,0 -6.05824003,5.3851 20.86728047,-2.69255 26.92552,-8.07765 74.04515,22.88665 74.04515,22.88665 0,0 4.711997,-4.712 4.711997,-8.07766 0,-3.36566 5.38511,-22.88669 5.38511,-22.88669 0,0 4.712,-82.796 6.73138,-92.21991 2.01938,-9.42391 -8.07767,-60.58242 -14.135907,-61.92868 z"
     id="path94"
     inkscape:connector-curvature="0"
     style="fill:#575a89" />
  <path
     d="m 90.337923,55.918966 a 11.50929,11.50929 0 0 1 5.41275,-1.44156 10.30066,10.30066 0 0 0 5.354337,-1.59542 c 2.607,-2.00142 2.79823,-5.86932 4.70539,-8.54606 2.76117,-3.87534 8.2695,-4.34179 13.02393,-4.14789 2.908,0.11859 6.03964,0.29225 8.48843,-1.28058 2.5139,-1.61465 3.65338,-4.65693 4.501,-7.52194 1.00241,-3.38806 1.65075,-7.53139 -0.83318,-10.04413 -1.72489,-1.7449 -4.44757,-2.09 -6.36371,-3.62242 -1.98677,-1.5889 -2.80432,-4.17476 -3.88425,-6.47815 a 17.50685,17.50685 0 0 0 -5.63735,-7.0611899 c -3.61468,-2.51149 -8.23146,-3.07467 -12.63275,-3.0276 -4.401287,0.0471 -8.821047,0.62578 -13.189327,0.0857 -3.579,-0.44251999 -7.14744,-1.63299999 -10.71484,-1.10533999 -4.5458,0.67239 -8.30654,4.10188999 -10.54644,8.11426999 -2.2399,4.0123799 -3.201,8.5922599 -4.133,13.0919999 l -2.53464,12.23819 c -0.78614,3.79576 -1.57551,7.6924 -0.96866,11.52091 1.258,7.93655 8.27687,14.24507 8.76049,22.26613 a 13.66856,13.66856 0 0 1 8.343,-9.92064 2.61085,2.61085 0 0 1 1.69982,-0.2062 c 0.69733,0.22289 1.1049,0.91957 1.545,1.50462 1.15307,1.53294 4.77533,3.85871 6.8286,2.77123 1.83715,-0.973 0.4656,-4.0274 2.7754,-5.5939 z"
     id="path96"
     inkscape:connector-curvature="0"
     style="fill:#2f2e41" />
  <path
     d="m 20.777633,181.64517 c 0,0 -4.712,29.61807 14.809,26.92552 0,0 10.09707,-1.34628 11.44334,0 1.34627,1.34628 51.15849,-7.40452 57.889867,-14.809 0,0 8.07766,-2.69255 12.11648,1.34628 4.03882,4.03883 44.42711,8.07766 32.31063,-4.03883 -12.11648,-12.11649 -30.96435,-14.809 -30.96435,-14.809 l -25.579237,1.34627 c 0,0 -13.46276,4.03883 -21.54042,0 -8.07766,-4.03883 -30.96435,-2.69255 -30.96435,-2.69255 z"
     id="path98"
     inkscape:connector-curvature="0"
     style="fill:#a0616a" />
  <path
     d="m 48.376293,88.078946 c 0,0 -30.29121,3.36569 -30.29121,47.119664 v 55.87045 c 0,0 16.82845,-7.40452 20.19414,-6.73138 3.36569,0.67314 16.82845,-8.75079 16.82845,-8.75079 0,0 15.48217,-36.34945 14.1359,-46.44652 -1.34627,-10.09707 -0.67314,-39.715154 -20.86728,-41.061424 z"
     id="path100"
     inkscape:connector-curvature="0"
     style="fill:#575a89" />
  <ellipse
     cx="96.842216"
     cy="35.910748"
     rx="25.91581"
     ry="13.46276"
     id="ellipse102"
     style="fill:#2f2e41" />
  <ellipse
     cx="72.609261"
     cy="38.26672"
     rx="9.0873604"
     ry="22.550119"
     id="ellipse104"
     style="fill:#2f2e41" />
</svg>
